
State Machine - |NIOS|NIOS_CPU:cpu|NIOS_CPU_cpu:cpu|NIOS_CPU_cpu_nios2_oci:the_NIOS_CPU_cpu_nios2_oci|NIOS_CPU_cpu_debug_slave_wrapper:the_NIOS_CPU_cpu_debug_slave_wrapper|NIOS_CPU_cpu_debug_slave_tck:the_NIOS_CPU_cpu_debug_slave_tck|DRsize
Name DRsize.101 DRsize.100 DRsize.011 DRsize.010 DRsize.001 DRsize.000 
DRsize.000 0 0 0 0 0 0 
DRsize.001 0 0 0 0 1 1 
DRsize.010 0 0 0 1 0 1 
DRsize.011 0 0 1 0 0 1 
DRsize.100 0 1 0 0 0 1 
DRsize.101 1 0 0 0 0 1 
