Info: Starting: Create block symbol file (.bsf)
Info: qsys-generate C:\Users\Adam\Documents\MAXimator\NIOSbaseIO\CPU\NIOS.qsys --block-symbol-file --output-directory=C:\Users\Adam\Documents\MAXimator\NIOSbaseIO\CPU\NIOS --family="MAX 10" --part=10M08DAF256C8GES
Progress: Loading CPU/NIOS.qsys
Progress: Reading input file
Progress: Adding CLK [clock_source 17.1]
Progress: Parameterizing module CLK
Progress: Adding CPU [altera_nios2_gen2 17.1]
Progress: Parameterizing module CPU
Progress: Adding LED [altera_avalon_pio 17.1]
Progress: Parameterizing module LED
Progress: Adding PLL [altpll 17.1]
Progress: Parameterizing module PLL
Progress: Adding RAM [altera_avalon_onchip_memory2 17.1]
Progress: Parameterizing module RAM
Progress: Adding jtag_uart_0 [altera_avalon_jtag_uart 17.1]
Progress: Parameterizing module jtag_uart_0
Progress: Adding sysid_qsys_0 [altera_avalon_sysid_qsys 17.1]
Progress: Parameterizing module sysid_qsys_0
Progress: Building connections
Progress: Parameterizing connections
Progress: Validating
Progress: Done reading input file
Info: NIOS.jtag_uart_0: JTAG UART IP input clock need to be at least double (2x) the operating frequency of JTAG TCK on board
Info: NIOS.sysid_qsys_0: System ID is not assigned automatically. Edit the System ID parameter to provide a unique ID
Info: NIOS.sysid_qsys_0: Time stamp will be automatically updated when this component is generated.
Info: qsys-generate succeeded.
Info: Finished: Create block symbol file (.bsf)
Info: 
Info: Starting: Create HDL design files for synthesis
Info: qsys-generate C:\Users\Adam\Documents\MAXimator\NIOSbaseIO\CPU\NIOS.qsys --synthesis=VHDL --output-directory=C:\Users\Adam\Documents\MAXimator\NIOSbaseIO\CPU\NIOS\synthesis --family="MAX 10" --part=10M08DAF256C8GES
Progress: Loading CPU/NIOS.qsys
Progress: Reading input file
Progress: Adding CLK [clock_source 17.1]
Progress: Parameterizing module CLK
Progress: Adding CPU [altera_nios2_gen2 17.1]
Progress: Parameterizing module CPU
Progress: Adding LED [altera_avalon_pio 17.1]
Progress: Parameterizing module LED
Progress: Adding PLL [altpll 17.1]
Progress: Parameterizing module PLL
Progress: Adding RAM [altera_avalon_onchip_memory2 17.1]
Progress: Parameterizing module RAM
Progress: Adding jtag_uart_0 [altera_avalon_jtag_uart 17.1]
Progress: Parameterizing module jtag_uart_0
Progress: Adding sysid_qsys_0 [altera_avalon_sysid_qsys 17.1]
Progress: Parameterizing module sysid_qsys_0
Progress: Building connections
Progress: Parameterizing connections
Progress: Validating
Progress: Done reading input file
Info: NIOS.jtag_uart_0: JTAG UART IP input clock need to be at least double (2x) the operating frequency of JTAG TCK on board
Info: NIOS.sysid_qsys_0: System ID is not assigned automatically. Edit the System ID parameter to provide a unique ID
Info: NIOS.sysid_qsys_0: Time stamp will be automatically updated when this component is generated.
Info: NIOS: Generating NIOS "NIOS" for QUARTUS_SYNTH
Info: Inserting clock-crossing logic between cmd_demux.src3 and cmd_mux_003.sink0
Info: Inserting clock-crossing logic between rsp_demux_003.src0 and rsp_mux.sink3
Info: CPU: "NIOS" instantiated altera_nios2_gen2 "CPU"
Info: LED: Starting RTL generation for module 'NIOS_LED'
Info: LED:   Generation command is [exec D:/adam/intelfpga_lite/17.1/quartus/bin64/perl/bin/perl.exe -I D:/adam/intelfpga_lite/17.1/quartus/bin64/perl/lib -I D:/adam/intelfpga_lite/17.1/quartus/sopc_builder/bin/europa -I D:/adam/intelfpga_lite/17.1/quartus/sopc_builder/bin/perl_lib -I D:/adam/intelfpga_lite/17.1/quartus/sopc_builder/bin -I D:/adam/intelfpga_lite/17.1/quartus/../ip/altera/sopc_builder_ip/common -I D:/adam/intelfpga_lite/17.1/quartus/../ip/altera/sopc_builder_ip/altera_avalon_pio -- D:/adam/intelfpga_lite/17.1/quartus/../ip/altera/sopc_builder_ip/altera_avalon_pio/generate_rtl.pl --name=NIOS_LED --dir=C:/Users/Adam/AppData/Local/Temp/alt7558_6472415221555850790.dir/0002_LED_gen/ --quartus_dir=D:/adam/intelfpga_lite/17.1/quartus --verilog --config=C:/Users/Adam/AppData/Local/Temp/alt7558_6472415221555850790.dir/0002_LED_gen//NIOS_LED_component_configuration.pl  --do_build_sim=0  ]
Info: LED: Done RTL generation for module 'NIOS_LED'
Info: LED: "NIOS" instantiated altera_avalon_pio "LED"
Info: PLL: "NIOS" instantiated altpll "PLL"
Info: RAM: Starting RTL generation for module 'NIOS_RAM'
Info: RAM:   Generation command is [exec D:/adam/intelfpga_lite/17.1/quartus/bin64/perl/bin/perl.exe -I D:/adam/intelfpga_lite/17.1/quartus/bin64/perl/lib -I D:/adam/intelfpga_lite/17.1/quartus/sopc_builder/bin/europa -I D:/adam/intelfpga_lite/17.1/quartus/sopc_builder/bin/perl_lib -I D:/adam/intelfpga_lite/17.1/quartus/sopc_builder/bin -I D:/adam/intelfpga_lite/17.1/quartus/../ip/altera/sopc_builder_ip/common -I D:/adam/intelfpga_lite/17.1/quartus/../ip/altera/sopc_builder_ip/altera_avalon_onchip_memory2 -- D:/adam/intelfpga_lite/17.1/quartus/../ip/altera/sopc_builder_ip/altera_avalon_onchip_memory2/generate_rtl.pl --name=NIOS_RAM --dir=C:/Users/Adam/AppData/Local/Temp/alt7558_6472415221555850790.dir/0005_RAM_gen/ --quartus_dir=D:/adam/intelfpga_lite/17.1/quartus --verilog --config=C:/Users/Adam/AppData/Local/Temp/alt7558_6472415221555850790.dir/0005_RAM_gen//NIOS_RAM_component_configuration.pl  --do_build_sim=0  ]
Info: RAM: Done RTL generation for module 'NIOS_RAM'
Info: RAM: "NIOS" instantiated altera_avalon_onchip_memory2 "RAM"
Info: jtag_uart_0: Starting RTL generation for module 'NIOS_jtag_uart_0'
Info: jtag_uart_0:   Generation command is [exec D:/adam/intelfpga_lite/17.1/quartus/bin64/perl/bin/perl.exe -I D:/adam/intelfpga_lite/17.1/quartus/bin64/perl/lib -I D:/adam/intelfpga_lite/17.1/quartus/sopc_builder/bin/europa -I D:/adam/intelfpga_lite/17.1/quartus/sopc_builder/bin/perl_lib -I D:/adam/intelfpga_lite/17.1/quartus/sopc_builder/bin -I D:/adam/intelfpga_lite/17.1/quartus/../ip/altera/sopc_builder_ip/common -I D:/adam/intelfpga_lite/17.1/quartus/../ip/altera/sopc_builder_ip/altera_avalon_jtag_uart -- D:/adam/intelfpga_lite/17.1/quartus/../ip/altera/sopc_builder_ip/altera_avalon_jtag_uart/generate_rtl.pl --name=NIOS_jtag_uart_0 --dir=C:/Users/Adam/AppData/Local/Temp/alt7558_6472415221555850790.dir/0006_jtag_uart_0_gen/ --quartus_dir=D:/adam/intelfpga_lite/17.1/quartus --verilog --config=C:/Users/Adam/AppData/Local/Temp/alt7558_6472415221555850790.dir/0006_jtag_uart_0_gen//NIOS_jtag_uart_0_component_configuration.pl  --do_build_sim=0  ]
Info: jtag_uart_0: Done RTL generation for module 'NIOS_jtag_uart_0'
Info: jtag_uart_0: "NIOS" instantiated altera_avalon_jtag_uart "jtag_uart_0"
Info: sysid_qsys_0: "NIOS" instantiated altera_avalon_sysid_qsys "sysid_qsys_0"
Info: avalon_st_adapter: Inserting error_adapter: error_adapter_0
Info: avalon_st_adapter_001: Inserting error_adapter: error_adapter_0
Info: avalon_st_adapter_002: Inserting error_adapter: error_adapter_0
Info: avalon_st_adapter_003: Inserting error_adapter: error_adapter_0
Info: avalon_st_adapter_004: Inserting error_adapter: error_adapter_0
Info: avalon_st_adapter_005: Inserting error_adapter: error_adapter_0
Info: mm_interconnect_0: "NIOS" instantiated altera_mm_interconnect "mm_interconnect_0"
Info: irq_mapper: "NIOS" instantiated altera_irq_mapper "irq_mapper"
Info: rst_controller: "NIOS" instantiated altera_reset_controller "rst_controller"
Info: cpu: Starting RTL generation for module 'NIOS_CPU_cpu'
Info: cpu:   Generation command is [exec D:/Adam/intelFPGA_lite/17.1/quartus/bin64//eperlcmd.exe -I D:/Adam/intelFPGA_lite/17.1/quartus/bin64//perl/lib -I D:/adam/intelfpga_lite/17.1/quartus/sopc_builder/bin/europa -I D:/adam/intelfpga_lite/17.1/quartus/sopc_builder/bin/perl_lib -I D:/adam/intelfpga_lite/17.1/quartus/sopc_builder/bin -I D:/adam/intelfpga_lite/17.1/quartus/../ip/altera/nios2_ip/altera_nios2_gen2/cpu_lib -I D:/adam/intelfpga_lite/17.1/quartus/../ip/altera/nios2_ip/altera_nios2_gen2/nios_lib -I D:/adam/intelfpga_lite/17.1/quartus/../ip/altera/nios2_ip/altera_nios2_gen2 -I D:/adam/intelfpga_lite/17.1/quartus/../ip/altera/nios2_ip/altera_nios2_gen2 -- D:/adam/intelfpga_lite/17.1/quartus/../ip/altera/nios2_ip/altera_nios2_gen2/generate_rtl.epl --name=NIOS_CPU_cpu --dir=C:/Users/Adam/AppData/Local/Temp/alt7558_6472415221555850790.dir/0010_cpu_gen/ --quartus_bindir=D:/Adam/intelFPGA_lite/17.1/quartus/bin64/ --verilog --config=C:/Users/Adam/AppData/Local/Temp/alt7558_6472415221555850790.dir/0010_cpu_gen//NIOS_CPU_cpu_processor_configuration.pl  --do_build_sim=0  ]
Info: cpu: # 2018.01.27 09:40:02 (*) Starting Nios II generation
Info: cpu: # 2018.01.27 09:40:02 (*)   Checking for plaintext license.
Info: cpu: # 2018.01.27 09:40:04 (*)   Couldn't query license setup in Quartus directory D:/Adam/intelFPGA_lite/17.1/quartus/bin64/
Info: cpu: # 2018.01.27 09:40:04 (*)   Defaulting to contents of LM_LICENSE_FILE environment variable
Info: cpu: # 2018.01.27 09:40:04 (*)   LM_LICENSE_FILE environment variable is empty
Info: cpu: # 2018.01.27 09:40:04 (*)   Plaintext license not found.
Info: cpu: # 2018.01.27 09:40:04 (*)   No license required to generate encrypted Nios II/e.
Info: cpu: # 2018.01.27 09:40:04 (*)   Elaborating CPU configuration settings
Info: cpu: # 2018.01.27 09:40:04 (*)   Creating all objects for CPU
Info: cpu: # 2018.01.27 09:40:07 (*)   Generating RTL from CPU objects
Info: cpu: # 2018.01.27 09:40:07 (*)   Creating plain-text RTL
Info: cpu: # 2018.01.27 09:40:08 (*) Done Nios II generation
Info: cpu: Done RTL generation for module 'NIOS_CPU_cpu'
Info: cpu: "CPU" instantiated altera_nios2_gen2_unit "cpu"
Info: CPU_data_master_translator: "mm_interconnect_0" instantiated altera_merlin_master_translator "CPU_data_master_translator"
Info: jtag_uart_0_avalon_jtag_slave_translator: "mm_interconnect_0" instantiated altera_merlin_slave_translator "jtag_uart_0_avalon_jtag_slave_translator"
Info: CPU_data_master_agent: "mm_interconnect_0" instantiated altera_merlin_master_agent "CPU_data_master_agent"
Info: jtag_uart_0_avalon_jtag_slave_agent: "mm_interconnect_0" instantiated altera_merlin_slave_agent "jtag_uart_0_avalon_jtag_slave_agent"
Info: jtag_uart_0_avalon_jtag_slave_agent_rsp_fifo: "mm_interconnect_0" instantiated altera_avalon_sc_fifo "jtag_uart_0_avalon_jtag_slave_agent_rsp_fifo"
Info: router: "mm_interconnect_0" instantiated altera_merlin_router "router"
Info: router_001: "mm_interconnect_0" instantiated altera_merlin_router "router_001"
Info: router_002: "mm_interconnect_0" instantiated altera_merlin_router "router_002"
Info: router_004: "mm_interconnect_0" instantiated altera_merlin_router "router_004"
Info: cmd_demux: "mm_interconnect_0" instantiated altera_merlin_demultiplexer "cmd_demux"
Info: cmd_demux_001: "mm_interconnect_0" instantiated altera_merlin_demultiplexer "cmd_demux_001"
Info: cmd_mux: "mm_interconnect_0" instantiated altera_merlin_multiplexer "cmd_mux"
Info: cmd_mux_002: "mm_interconnect_0" instantiated altera_merlin_multiplexer "cmd_mux_002"
Info: Reusing file C:/Users/Adam/Documents/MAXimator/NIOSbaseIO/CPU/NIOS/synthesis/submodules/altera_merlin_arbitrator.sv
Info: rsp_demux: "mm_interconnect_0" instantiated altera_merlin_demultiplexer "rsp_demux"
Info: rsp_demux_003: "mm_interconnect_0" instantiated altera_merlin_demultiplexer "rsp_demux_003"
Info: rsp_mux: "mm_interconnect_0" instantiated altera_merlin_multiplexer "rsp_mux"
Info: Reusing file C:/Users/Adam/Documents/MAXimator/NIOSbaseIO/CPU/NIOS/synthesis/submodules/altera_merlin_arbitrator.sv
Info: rsp_mux_001: "mm_interconnect_0" instantiated altera_merlin_multiplexer "rsp_mux_001"
Info: Reusing file C:/Users/Adam/Documents/MAXimator/NIOSbaseIO/CPU/NIOS/synthesis/submodules/altera_merlin_arbitrator.sv
Info: crosser: "mm_interconnect_0" instantiated altera_avalon_st_handshake_clock_crosser "crosser"
Info: avalon_st_adapter: "mm_interconnect_0" instantiated altera_avalon_st_adapter "avalon_st_adapter"
Info: error_adapter_0: "avalon_st_adapter" instantiated error_adapter "error_adapter_0"
Info: NIOS: Done "NIOS" with 31 modules, 49 files
Info: qsys-generate succeeded.
Info: Finished: Create HDL design files for synthesis
